%YAML 1.1
%TAG !u! tag:unity3d.com,2011:
--- !u!114 &11400000
MonoBehaviour:
  m_ObjectHideFlags: 0
  m_CorrespondingSourceObject: {fileID: 0}
  m_PrefabInstance: {fileID: 0}
  m_PrefabAsset: {fileID: 0}
  m_GameObject: {fileID: 0}
  m_Enabled: 1
  m_EditorHideFlags: 0
  m_Script: {fileID: 11500000, guid: 40056074f26fdfb44a7f33578f2f56a9, type: 3}
  m_Name: Question 2
  m_EditorClassIdentifier: 
  question: Cual animal pone huevos
  answers:
  - gallina
  - perro
  - hormiga
  - girafa
  correctAnswerIndex: 0
